^C:\USERS\KAROL\DOCUMENTS\DEV\SDIZO\LAB_02\LAB_02\TESTING\MAIN.OBJ
C:\WINDOWS\GLOBALIZATION\SORTING\SORTDEFAULT.NLS
C:\USERS\KAROL\DOCUMENTS\DEV\SDIZO\LAB_02\LAB_02\TESTING\MAIN.OBJ
C:\WINDOWS\SYSTEM32\TZRES.DLL
